<?xml version="1.0" encoding="UTF-8" standalone="no"?>
<svg
   xmlns:dc="http://purl.org/dc/elements/1.1/"
   xmlns:cc="http://creativecommons.org/ns#"
   xmlns:rdf="http://www.w3.org/1999/02/22-rdf-syntax-ns#"
   xmlns:svg="http://www.w3.org/2000/svg"
   xmlns="http://www.w3.org/2000/svg"
   xmlns:sodipodi="http://sodipodi.sourceforge.net/DTD/sodipodi-0.dtd"
   xmlns:inkscape="http://www.inkscape.org/namespaces/inkscape"
   aria-hidden="true"
   focusable="false"
   data-prefix="fab"
   data-icon="mastodon"
   class="svg-inline--fa fa-mastodon fa-w-14"
   role="img"
   viewBox="0 0 16 16"
   version="1.1"
   id="svg4"
   sodipodi:docname="mastodonbleu.svg"
   inkscape:version="0.92.3 (2405546, 2018-03-11)"
   width="16"
   height="16">
  <metadata
     id="metadata10">
    <rdf:RDF>
      <cc:Work
         rdf:about="">
        <dc:format>image/svg+xml</dc:format>
        <dc:type
           rdf:resource="http://purl.org/dc/dcmitype/StillImage" />
        <dc:title></dc:title>
      </cc:Work>
    </rdf:RDF>
  </metadata>
  <defs
     id="defs8" />
  <sodipodi:namedview
     pagecolor="#ffffff"
     bordercolor="#666666"
     borderopacity="1"
     objecttolerance="10"
     gridtolerance="10"
     guidetolerance="10"
     inkscape:pageopacity="0"
     inkscape:pageshadow="2"
     inkscape:window-width="1373"
     inkscape:window-height="839"
     id="namedview6"
     showgrid="false"
     inkscape:zoom="20.85965"
     inkscape:cx="5.4138901"
     inkscape:cy="2.3630151"
     inkscape:window-x="1"
     inkscape:window-y="1"
     inkscape:window-maximized="0"
     inkscape:current-layer="svg4" />
  <path
     d="m 15.557738,5.2398363 c 0,-3.4174489 -2.267241,-4.41947944 -2.267241,-4.41947944 -2.224895,-1.0090616 -8.1337448,-0.99851377 -10.337286,0 0,0 -2.26759784,1.00203054 -2.26759784,4.41947944 0,4.0678906 -0.23487369,9.1202307 3.75904444,10.1644507 1.4416259,0.376202 2.680406,0.457067 3.6771959,0.400813 1.8081707,-0.09845 2.8227535,-0.636378 2.8227535,-0.636378 l -0.06049,-1.297364 c 0,0 -1.2921608,0.400812 -2.7444631,0.355106 C 6.7015845,14.177244 5.1859378,14.071763 4.9499968,12.32788 a 3.6490815,3.6051983 0 0 1 -0.032027,-0.488709 c 3.0473077,0.734822 5.6458632,0.319945 6.3611602,0.235565 1.997138,-0.235565 3.736625,-1.452066 3.958332,-2.5630876 0.348753,-1.7509151 0.320283,-4.2718121 0.320283,-4.2718121 z M 12.88445,9.6417368 H 11.225032 V 5.6265855 c 0,-1.7474004 -2.2775627,-1.8142016 -2.2775627,0.242596 V 8.0666161 H 7.2987283 V 5.8688298 c 0,-2.0567977 -2.2775627,-1.9899965 -2.2775627,-0.2425961 V 9.641385 h -1.662976 c 0,-4.292907 -0.185052,-5.2000077 0.6551547,-6.1528151 0.921701,-1.0160942 2.840547,-1.0828954 3.6949897,0.2144695 L 8.1211414,4.388639 8.5339497,3.7030394 C 9.3919502,2.3986425 11.313999,2.4795076 12.228939,3.4885699 c 0.843765,0.9598384 0.6548,1.8634241 0.6548,6.1528151 z"
     id="path2"
     style="fill:#1e90ff;fill-opacity:1;stroke-width:0.03537228"
     inkscape:connector-curvature="0" />
</svg>
