<?xml version="1.0" encoding="UTF-8" standalone="no"?>
<!-- Created with Inkscape (http://www.inkscape.org/) -->

<svg
   xmlns:dc="http://purl.org/dc/elements/1.1/"
   xmlns:cc="http://creativecommons.org/ns#"
   xmlns:rdf="http://www.w3.org/1999/02/22-rdf-syntax-ns#"
   xmlns:svg="http://www.w3.org/2000/svg"
   xmlns="http://www.w3.org/2000/svg"
   xmlns:sodipodi="http://sodipodi.sourceforge.net/DTD/sodipodi-0.dtd"
   xmlns:inkscape="http://www.inkscape.org/namespaces/inkscape"
   width="1800"
   height="763"
   viewBox="0 0 476.25001 201.87708"
   version="1.1"
   id="svg8"
   inkscape:export-filename="/home/bonlohi/Documents/TESTgolb/boulga/static/images/postimages/say.png"
   inkscape:export-xdpi="96"
   inkscape:export-ydpi="96"
   inkscape:version="0.92.3 (2405546, 2018-03-11)"
   sodipodi:docname="mainframe.svg">
  <defs
     id="defs2">
    <pattern
       y="0"
       x="0"
       height="6"
       width="6"
       patternUnits="userSpaceOnUse"
       id="WMFhbasepattern" />
  </defs>
  <sodipodi:namedview
     id="base"
     pagecolor="#ffffff"
     bordercolor="#e924be"
     borderopacity="1"
     inkscape:pageopacity="0.0"
     inkscape:pageshadow="2"
     inkscape:zoom="0.49497475"
     inkscape:cx="635.20312"
     inkscape:cy="310.63319"
     inkscape:document-units="mm"
     inkscape:current-layer="surface1"
     showgrid="false"
     borderlayer="true"
     showguides="true"
     inkscape:guide-bbox="true"
     units="px"
     inkscape:window-width="1920"
     inkscape:window-height="1027"
     inkscape:window-x="0"
     inkscape:window-y="0"
     inkscape:window-maximized="1">
    <sodipodi:guide
       position="238.125,1032.7294"
       orientation="1,0"
       id="guide1534"
       inkscape:locked="false"
       inkscape:label=""
       inkscape:color="rgb(0,0,255)" />
  </sodipodi:namedview>
  <metadata
     id="metadata5">
    <rdf:RDF>
      <cc:Work
         rdf:about="">
        <dc:format>image/svg+xml</dc:format>
        <dc:type
           rdf:resource="http://purl.org/dc/dcmitype/StillImage" />
        <dc:title></dc:title>
      </cc:Work>
    </rdf:RDF>
  </metadata>
  <g
     inkscape:label="Calque 1"
     inkscape:groupmode="layer"
     id="layer1"
     transform="translate(0,-95.122924)">
    <rect
       style="opacity:1;fill:#004455;fill-opacity:1;stroke:#ffffff;stroke-width:0;stroke-miterlimit:4;stroke-dasharray:none;stroke-dashoffset:0;stroke-opacity:1"
       id="rect1532"
       width="606.1673"
       height="273.68399"
       x="-52.384834"
       y="40.421234" />
    <g
       id="g2345"
       transform="matrix(0.14258886,0,0,0.14258886,165.1195,176.34344)"
       style="stroke:#04fff9;stroke-width:4.95129845;stroke-miterlimit:4;stroke-dasharray:none;stroke-opacity:1">
      <g
         id="g2243"
         style="stroke:#04fff9;stroke-width:4.95129845;stroke-miterlimit:4;stroke-dasharray:none;stroke-opacity:1">
	<g
   id="g2241"
   style="stroke:#04fff9;stroke-width:4.95129845;stroke-miterlimit:4;stroke-dasharray:none;stroke-opacity:1">
		<path
   id="path2239"
   d="M 482,251.459 V 0 H 30 v 251.459 l -30,60 V 512 H 512 V 311.459 Z M 60,30 H 452 V 240 H 60 Z M 54.271,270 H 457.73 l 15,30 H 39.271 Z M 180,482 H 30 v -32 h 150 z m 0,-62 H 30 v -90 h 150 z m 122,62 H 210 V 330 h 92 z m 180,0 H 332 v -32 h 150 z m 0,-62 H 332 v -90 h 150 z"
   inkscape:connector-curvature="0"
   style="fill:none;stroke:#04fff9;stroke-width:4.95129845;stroke-miterlimit:4;stroke-dasharray:none;stroke-opacity:1" />

	</g>

</g>
      <g
         id="g2249"
         style="fill:none;stroke:#04fff9;stroke-width:4.95129845;stroke-miterlimit:4;stroke-dasharray:none;stroke-opacity:1">
	<g
   id="g2247"
   style="fill:none;stroke:#04fff9;stroke-width:4.95129845;stroke-miterlimit:4;stroke-dasharray:none;stroke-opacity:1">
		<path
   id="path2245"
   d="M 90,60 V 210 H 422 V 60 Z M 392,180 H 120 V 90 h 272 z"
   inkscape:connector-curvature="0"
   style="fill:none;stroke:#04fff9;stroke-width:4.95129845;stroke-miterlimit:4;stroke-dasharray:none;stroke-opacity:1" />

	</g>

</g>
      <g
         id="g2255"
         style="fill:none;stroke:#04fff9;stroke-width:4.95129845;stroke-miterlimit:4;stroke-dasharray:none;stroke-opacity:1">
	<g
   id="g2253"
   style="fill:none;stroke:#04fff9;stroke-width:4.95129845;stroke-miterlimit:4;stroke-dasharray:none;stroke-opacity:1">
		<rect
   id="rect2251"
   height="30"
   width="30"
   y="361"
   x="60"
   style="fill:none;stroke:#04fff9;stroke-width:4.95129845;stroke-miterlimit:4;stroke-dasharray:none;stroke-opacity:1" />

	</g>

</g>
      <g
         id="g2261"
         style="fill:none;stroke:#04fff9;stroke-width:4.95129845;stroke-miterlimit:4;stroke-dasharray:none;stroke-opacity:1">
	<g
   id="g2259"
   style="fill:none;stroke:#04fff9;stroke-width:4.95129845;stroke-miterlimit:4;stroke-dasharray:none;stroke-opacity:1">
		<rect
   id="rect2257"
   height="30"
   width="30"
   y="361"
   x="120"
   style="fill:none;stroke:#04fff9;stroke-width:4.95129845;stroke-miterlimit:4;stroke-dasharray:none;stroke-opacity:1" />

	</g>

</g>
      <g
         id="g2267"
         style="fill:none;stroke:#04fff9;stroke-width:4.95129845;stroke-miterlimit:4;stroke-dasharray:none;stroke-opacity:1">
	<g
   id="g2265"
   style="fill:none;stroke:#04fff9;stroke-width:4.95129845;stroke-miterlimit:4;stroke-dasharray:none;stroke-opacity:1">
		<rect
   id="rect2263"
   height="30"
   width="30"
   y="361"
   x="422"
   style="fill:none;stroke:#04fff9;stroke-width:4.95129845;stroke-miterlimit:4;stroke-dasharray:none;stroke-opacity:1" />

	</g>

</g>
      <g
         id="g2273"
         style="fill:none;stroke:#04fff9;stroke-width:4.95129845;stroke-miterlimit:4;stroke-dasharray:none;stroke-opacity:1">
	<g
   id="g2271"
   style="fill:none;stroke:#04fff9;stroke-width:4.95129845;stroke-miterlimit:4;stroke-dasharray:none;stroke-opacity:1">
		<rect
   id="rect2269"
   height="30"
   width="30"
   y="361"
   x="362"
   style="fill:none;stroke:#04fff9;stroke-width:4.95129845;stroke-miterlimit:4;stroke-dasharray:none;stroke-opacity:1" />

	</g>

</g>
      <g
         id="g2275"
         style="stroke:#04fff9;stroke-width:4.95129845;stroke-miterlimit:4;stroke-dasharray:none;stroke-opacity:1">
</g>
      <g
         id="g2277"
         style="stroke:#04fff9;stroke-width:4.95129845;stroke-miterlimit:4;stroke-dasharray:none;stroke-opacity:1">
</g>
      <g
         id="g2279"
         style="stroke:#04fff9;stroke-width:4.95129845;stroke-miterlimit:4;stroke-dasharray:none;stroke-opacity:1">
</g>
      <g
         id="g2281"
         style="stroke:#04fff9;stroke-width:4.95129845;stroke-miterlimit:4;stroke-dasharray:none;stroke-opacity:1">
</g>
      <g
         id="g2283"
         style="stroke:#04fff9;stroke-width:4.95129845;stroke-miterlimit:4;stroke-dasharray:none;stroke-opacity:1">
</g>
      <g
         id="g2285"
         style="stroke:#04fff9;stroke-width:4.95129845;stroke-miterlimit:4;stroke-dasharray:none;stroke-opacity:1">
</g>
      <g
         id="g2287"
         style="stroke:#04fff9;stroke-width:4.95129845;stroke-miterlimit:4;stroke-dasharray:none;stroke-opacity:1">
</g>
      <g
         id="g2289"
         style="stroke:#04fff9;stroke-width:4.95129845;stroke-miterlimit:4;stroke-dasharray:none;stroke-opacity:1">
</g>
      <g
         id="g2291"
         style="stroke:#04fff9;stroke-width:4.95129845;stroke-miterlimit:4;stroke-dasharray:none;stroke-opacity:1">
</g>
      <g
         id="g2293"
         style="stroke:#04fff9;stroke-width:4.95129845;stroke-miterlimit:4;stroke-dasharray:none;stroke-opacity:1">
</g>
      <g
         id="g2295"
         style="stroke:#04fff9;stroke-width:4.95129845;stroke-miterlimit:4;stroke-dasharray:none;stroke-opacity:1">
</g>
      <g
         id="g2297"
         style="stroke:#04fff9;stroke-width:4.95129845;stroke-miterlimit:4;stroke-dasharray:none;stroke-opacity:1">
</g>
      <g
         id="g2299"
         style="stroke:#04fff9;stroke-width:4.95129845;stroke-miterlimit:4;stroke-dasharray:none;stroke-opacity:1">
</g>
      <g
         id="g2301"
         style="stroke:#04fff9;stroke-width:4.95129845;stroke-miterlimit:4;stroke-dasharray:none;stroke-opacity:1">
</g>
      <g
         id="g2303"
         style="stroke:#04fff9;stroke-width:4.95129845;stroke-miterlimit:4;stroke-dasharray:none;stroke-opacity:1">
</g>
    </g>
    <g
       id="surface1"
       transform="matrix(0.26318042,0,0,0.26318042,259.06151,92.717214)"
       style="fill:none;stroke:#04fff9;stroke-width:2.13598704;stroke-miterlimit:4;stroke-dasharray:none;stroke-opacity:1">
      <path
         id="path2347"
         style="fill:none;fill-opacity:1;fill-rule:nonzero;stroke:#04fff9;stroke-width:2.68257039;stroke-miterlimit:4;stroke-dasharray:none;stroke-opacity:1"
         d="M -79.551942,595.1496 H 191.15363 V 125.92662 H -79.551942 Z M -52.481381,152.99718 H 164.08307 v 54.14111 H -52.481381 Z m 0,72.18815 H 164.08307 v 54.14111 H -52.481381 Z m 0,72.18815 H 164.08307 v 54.14111 H -52.481381 Z m 0,72.18815 H 164.08307 v 54.14111 H -52.481381 Z m 0,72.18815 H 164.08307 v 54.14111 H -52.481381 Z m 0,72.18815 H 164.08307 v 54.14111 H -52.481381 Z m 0,0"
         inkscape:connector-curvature="0" />
      <path
         id="path2349"
         style="fill:none;fill-opacity:1;fill-rule:nonzero;stroke:#04fff9;stroke-width:2.68257039;stroke-miterlimit:4;stroke-dasharray:none;stroke-opacity:1"
         d="m 118.96548,171.04422 h 18.04703 v 18.04703 h -18.04703 z m 0,0"
         inkscape:connector-curvature="0" />
      <path
         id="path2351"
         style="fill:none;fill-opacity:1;fill-rule:nonzero;stroke:#04fff9;stroke-width:2.68257039;stroke-miterlimit:4;stroke-dasharray:none;stroke-opacity:1"
         d="m 82.8714,171.04422 h 18.04704 v 18.04703 H 82.8714 Z m 0,0"
         inkscape:connector-curvature="0" />
      <path
         id="path2353"
         style="fill:none;fill-opacity:1;fill-rule:nonzero;stroke:#04fff9;stroke-width:2.68257039;stroke-miterlimit:4;stroke-dasharray:none;stroke-opacity:1"
         d="m -25.410825,171.04422 h 90.235187 v 18.04703 h -90.235187 z m 0,0"
         inkscape:connector-curvature="0" />
      <path
         id="path2355"
         style="fill:none;fill-opacity:1;fill-rule:nonzero;stroke:#04fff9;stroke-width:2.68257039;stroke-miterlimit:4;stroke-dasharray:none;stroke-opacity:1"
         d="m 118.96548,243.23236 h 18.04703 v 18.04704 h -18.04703 z m 0,0"
         inkscape:connector-curvature="0" />
      <path
         id="path2357"
         style="fill:none;fill-opacity:1;fill-rule:nonzero;stroke:#04fff9;stroke-width:2.68257039;stroke-miterlimit:4;stroke-dasharray:none;stroke-opacity:1"
         d="m 82.8714,243.23236 h 18.04704 V 261.2794 H 82.8714 Z m 0,0"
         inkscape:connector-curvature="0" />
      <path
         id="path2359"
         style="fill:none;fill-opacity:1;fill-rule:nonzero;stroke:#04fff9;stroke-width:2.68257039;stroke-miterlimit:4;stroke-dasharray:none;stroke-opacity:1"
         d="m -25.410825,243.23236 h 90.235187 v 18.04704 h -90.235187 z m 0,0"
         inkscape:connector-curvature="0" />
      <path
         id="path2361"
         style="fill:none;fill-opacity:1;fill-rule:nonzero;stroke:#04fff9;stroke-width:2.68257039;stroke-miterlimit:4;stroke-dasharray:none;stroke-opacity:1"
         d="m 118.96548,315.42051 h 18.04703 v 18.04704 h -18.04703 z m 0,0"
         inkscape:connector-curvature="0" />
      <path
         id="path2363"
         style="fill:none;fill-opacity:1;fill-rule:nonzero;stroke:#04fff9;stroke-width:2.68257039;stroke-miterlimit:4;stroke-dasharray:none;stroke-opacity:1"
         d="m 82.8714,315.42051 h 18.04704 v 18.04704 H 82.8714 Z m 0,0"
         inkscape:connector-curvature="0" />
      <path
         id="path2365"
         style="fill:none;fill-opacity:1;fill-rule:nonzero;stroke:#04fff9;stroke-width:2.68257039;stroke-miterlimit:4;stroke-dasharray:none;stroke-opacity:1"
         d="m -25.410825,315.42051 h 90.235187 v 18.04704 h -90.235187 z m 0,0"
         inkscape:connector-curvature="0" />
      <path
         id="path2367"
         style="fill:none;fill-opacity:1;fill-rule:nonzero;stroke:#04fff9;stroke-width:2.68257039;stroke-miterlimit:4;stroke-dasharray:none;stroke-opacity:1"
         d="m 118.96548,387.60866 h 18.04703 v 18.04704 h -18.04703 z m 0,0"
         inkscape:connector-curvature="0" />
      <path
         id="path2369"
         style="fill:none;fill-opacity:1;fill-rule:nonzero;stroke:#04fff9;stroke-width:2.68257039;stroke-miterlimit:4;stroke-dasharray:none;stroke-opacity:1"
         d="m 82.8714,387.60866 h 18.04704 V 405.6557 H 82.8714 Z m 0,0"
         inkscape:connector-curvature="0" />
      <path
         id="path2371"
         style="fill:none;fill-opacity:1;fill-rule:nonzero;stroke:#04fff9;stroke-width:2.68257039;stroke-miterlimit:4;stroke-dasharray:none;stroke-opacity:1"
         d="m -25.410825,387.60866 h 90.235187 v 18.04704 h -90.235187 z m 0,0"
         inkscape:connector-curvature="0" />
      <path
         id="path2373"
         style="fill:none;fill-opacity:1;fill-rule:nonzero;stroke:#04fff9;stroke-width:2.68257039;stroke-miterlimit:4;stroke-dasharray:none;stroke-opacity:1"
         d="m 118.96548,459.79681 h 18.04703 v 18.04704 h -18.04703 z m 0,0"
         inkscape:connector-curvature="0" />
      <path
         id="path2375"
         style="fill:none;fill-opacity:1;fill-rule:nonzero;stroke:#04fff9;stroke-width:2.68257039;stroke-miterlimit:4;stroke-dasharray:none;stroke-opacity:1"
         d="m 82.8714,459.79681 h 18.04704 v 18.04704 H 82.8714 Z m 0,0"
         inkscape:connector-curvature="0" />
      <path
         id="path2377"
         style="fill:none;fill-opacity:1;fill-rule:nonzero;stroke:#04fff9;stroke-width:2.68257039;stroke-miterlimit:4;stroke-dasharray:none;stroke-opacity:1"
         d="m -25.410825,459.79681 h 90.235187 v 18.04704 h -90.235187 z m 0,0"
         inkscape:connector-curvature="0" />
      <path
         id="path2379"
         style="fill:none;fill-opacity:1;fill-rule:nonzero;stroke:#04fff9;stroke-width:2.68257039;stroke-miterlimit:4;stroke-dasharray:none;stroke-opacity:1"
         d="m 118.96548,531.98496 h 18.04703 V 550.032 h -18.04703 z m 0,0"
         inkscape:connector-curvature="0" />
      <path
         id="path2381"
         style="fill:none;fill-opacity:1;fill-rule:nonzero;stroke:#04fff9;stroke-width:2.68257039;stroke-miterlimit:4;stroke-dasharray:none;stroke-opacity:1"
         d="m 82.8714,531.98496 h 18.04704 V 550.032 H 82.8714 Z m 0,0"
         inkscape:connector-curvature="0" />
      <path
         id="path2383"
         style="fill:none;fill-opacity:1;fill-rule:nonzero;stroke:#04fff9;stroke-width:2.68257039;stroke-miterlimit:4;stroke-dasharray:none;stroke-opacity:1"
         d="M -25.410825,531.98496 H 64.824362 V 550.032 h -90.235187 z m 0,0"
         inkscape:connector-curvature="0" />
      <path
         id="path2385"
         style="fill:none;fill-opacity:1;fill-rule:nonzero;stroke:#04fff9;stroke-width:2.68257039;stroke-miterlimit:4;stroke-dasharray:none;stroke-opacity:1"
         d="m -52.481381,613.19663 h 27.070556 v 27.07056 h -27.070556 z m 0,0"
         inkscape:connector-curvature="0" />
      <path
         id="path2387"
         style="fill:none;fill-opacity:1;fill-rule:nonzero;stroke:#04fff9;stroke-width:2.68257039;stroke-miterlimit:4;stroke-dasharray:none;stroke-opacity:1"
         d="m 137.01251,613.19663 h 27.07056 v 27.07056 h -27.07056 z m 0,0"
         inkscape:connector-curvature="0" />
      <path
         id="path2385-3"
         style="fill:none;fill-opacity:1;fill-rule:nonzero;stroke:#04fff9;stroke-width:2.68257039;stroke-miterlimit:4;stroke-dasharray:none;stroke-opacity:1"
         d="m -328.10483,612.63714 h 27.07055 v 27.07055 h -27.07055 z m 0,0"
         inkscape:connector-curvature="0" />
      <path
         id="path2387-6"
         style="fill:none;fill-opacity:1;fill-rule:nonzero;stroke:#04fff9;stroke-width:2.68257039;stroke-miterlimit:4;stroke-dasharray:none;stroke-opacity:1"
         d="m -138.61094,612.63714 h 27.07057 v 27.07055 h -27.07057 z m 0,0"
         inkscape:connector-curvature="0" />
    </g>
  </g>
</svg>
