<?xml version="1.0" encoding="UTF-8" standalone="no"?>
<!-- Created with Inkscape (http://www.inkscape.org/) -->

<svg
   xmlns:dc="http://purl.org/dc/elements/1.1/"
   xmlns:cc="http://creativecommons.org/ns#"
   xmlns:rdf="http://www.w3.org/1999/02/22-rdf-syntax-ns#"
   xmlns:svg="http://www.w3.org/2000/svg"
   xmlns="http://www.w3.org/2000/svg"
   xmlns:sodipodi="http://sodipodi.sourceforge.net/DTD/sodipodi-0.dtd"
   xmlns:inkscape="http://www.inkscape.org/namespaces/inkscape"
   width="1800"
   height="763"
   viewBox="0 0 476.25001 201.87708"
   version="1.1"
   id="svg8"
   inkscape:export-filename="/home/bonlohi/Documents/TESTgolb/boulga/static/images/postimages/say.png"
   inkscape:export-xdpi="96"
   inkscape:export-ydpi="96"
   inkscape:version="0.92.3 (2405546, 2018-03-11)"
   sodipodi:docname="say.svg">
  <defs
     id="defs2">
    <pattern
       y="0"
       x="0"
       height="6"
       width="6"
       patternUnits="userSpaceOnUse"
       id="WMFhbasepattern" />
  </defs>
  <sodipodi:namedview
     id="base"
     pagecolor="#ffffff"
     bordercolor="#e924be"
     borderopacity="1"
     inkscape:pageopacity="0.0"
     inkscape:pageshadow="2"
     inkscape:zoom="0.49497475"
     inkscape:cx="640.68383"
     inkscape:cy="614.19926"
     inkscape:document-units="mm"
     inkscape:current-layer="layer1"
     showgrid="false"
     borderlayer="true"
     showguides="true"
     inkscape:guide-bbox="true"
     units="px"
     inkscape:window-width="1920"
     inkscape:window-height="1027"
     inkscape:window-x="0"
     inkscape:window-y="0"
     inkscape:window-maximized="1">
    <sodipodi:guide
       position="238.125,1032.7294"
       orientation="1,0"
       id="guide1534"
       inkscape:locked="false"
       inkscape:label=""
       inkscape:color="rgb(0,0,255)" />
  </sodipodi:namedview>
  <metadata
     id="metadata5">
    <rdf:RDF>
      <cc:Work
         rdf:about="">
        <dc:format>image/svg+xml</dc:format>
        <dc:type
           rdf:resource="http://purl.org/dc/dcmitype/StillImage" />
        <dc:title></dc:title>
      </cc:Work>
    </rdf:RDF>
  </metadata>
  <g
     inkscape:label="Calque 1"
     inkscape:groupmode="layer"
     id="layer1"
     transform="translate(0,-95.122924)">
    <rect
       style="opacity:1;fill:#554400;fill-opacity:1;stroke:#ffffff;stroke-width:0;stroke-miterlimit:4;stroke-dasharray:none;stroke-dashoffset:0;stroke-opacity:1"
       id="rect1532"
       width="606.1673"
       height="273.68399"
       x="-52.384834"
       y="40.421234" />
    <g
       id="g2218"
       transform="matrix(0.40114773,0,0,0.40114773,156.45947,124.19721)"
       style="fill:none;stroke:#fbff04;stroke-width:1.85231662;stroke-miterlimit:4;stroke-dasharray:none;stroke-opacity:1">
      <path
         id="path2204"
         d="m 302.82812,229.0625 c 1.25391,-1.98047 1.39844,-4.46484 0.38672,-6.58203 C 283.32812,180.84375 274.69531,162.76953 269.75,155.19141 V 136.67578 C 269.75,61.390625 208.5,0.140625 133.21484,0.140625 h -9.10156 c -0.98437,0 -1.90625,0.226563 -2.7539,0.601563 C 55.382812,6.757812 3.507812,62.328125 3.507812,129.84766 v 3.09765 c 0,7.83594 0.464844,15.75 1.375,23.51172 C 4.96875,157.1875 5.25,157.83594 5.542969,158.47266 2.015625,167.61719 0,177.50391 0,187.875 c 0,45.22266 36.792969,82.01562 82.015625,82.01562 3.476563,0 6.878906,-0.28515 10.242187,-0.70703 v 79.11719 c 0,3.76953 3.054688,6.82813 6.824219,6.82813 H 208.3125 c 3.77344,0 6.82422,-3.0586 6.82422,-6.82813 v -34.13281 h 24.90234 c 16.38672,0 29.71094,-13.33203 29.71094,-29.71485 V 232.25 h 27.30859 c 2.34375,0 4.52344,-1.20313 5.76953,-3.1875 z m -74.03906,23.66406 h -27.84765 c -1.67188,-11.4414 -11.45704,-20.28515 -23.35157,-20.28515 -1.29687,0 -2.55078,0.17968 -3.79297,0.38281 -4.04296,-6.78125 -8.7539,-13.0586 -14.17968,-18.61719 2.8164,-8.27734 4.41406,-17.11328 4.41406,-26.33203 0,-28.83594 -14.99609,-54.19922 -37.5625,-68.82422 0.50781,-20.968749 7.80078,-40.996092 20.30469,-57.23828 l 12.26953,37.324219 c -7.11719,4.093751 -11.98047,11.687501 -11.98047,20.472661 0,13.0664 10.63281,23.70312 23.70312,23.70312 11.89454,0 21.67969,-8.84766 23.35157,-20.28906 h 61.17578 c 0.49609,4.48828 0.80469,9.03515 0.80469,13.65234 v 0.34766 c -1.10157,-0.22657 -2.2461,-0.34766 -3.41407,-0.34766 h -40.96093 c -9.41407,0 -17.06641,7.65625 -17.06641,17.06641 0,9.41015 7.65234,17.0664 17.06641,17.0664 h 31.89453 c -9.59766,15.58203 -14.82813,33.50782 -14.82813,52.27344 z m -63.01562,47.78906 c -17.95703,0 -32.5586,-14.60546 -32.5586,-32.55859 v -1.57422 c 0,-3.76953 -3.05468,-6.82812 -6.82421,-6.82812 -1.47266,0 -2.9375,-0.0703 -4.40235,-0.13282 13.19922,-7.40234 24.14063,-18.33984 31.55078,-31.53515 2.92969,3.41406 5.58203,7.07422 7.96094,10.95703 -4.65234,4.32812 -7.60938,10.45312 -7.60938,17.29687 0,11.84375 8.76172,21.59766 20.125,23.33985 0.0625,1.32031 0.16016,2.6289 0.16016,3.96484 0,5.75391 -0.57812,11.4961 -1.71094,17.06641 h -6.6914 z M 14.503906,177.63672 c 2.03125,-13.42578 7.953125,-25.5586 16.613282,-35.23828 l 20.570312,20.9375 c -3.363281,4.14843 -5.863281,9.0039 -7.308594,14.30078 z M 136,229.66406 115.14453,208.4375 c 1.03125,-1.65625 1.96875,-3.375 2.75,-5.1875 9.36328,3.39062 17.96875,8.3125 25.48828,14.5625 -2.0664,4.21484 -4.53515,8.17969 -7.38281,11.85156 z M 82.015625,213.26562 c -14,0 -25.390625,-11.39062 -25.390625,-25.39062 0,-14 11.390625,-25.39063 25.390625,-25.39063 14,0 25.390625,11.39063 25.390625,25.39063 0,14 -11.390625,25.39062 -25.390625,25.39062 z m 42.726565,-21.97656 h 25.46484 c -0.22656,4.48828 -0.87109,8.85938 -1.92578,13.08594 -7.16016,-5.38672 -15.05469,-9.78516 -23.53906,-13.08594 z m -5.09375,-13.65234 c -1.44141,-5.29688 -3.94141,-10.15235 -7.3086,-14.30078 l 20.57422,-20.9375 c 8.66016,9.67968 14.57813,21.8125 16.60938,35.23828 z m 3.1914,-44.46875 -20.84765,21.22265 c -4.933596,-2.95312 -10.546878,-4.85937 -16.566409,-5.38671 v -29.32032 c 13.996094,0.69532 26.863279,5.59375 37.414059,13.48438 z m -51.062496,17.07031 c -3.460938,0.94531 -6.726563,2.34766 -9.738282,4.15234 L 41.1875,133.16797 C 50,126.57813 60.421875,122.08203 71.773438,120.36328 v 29.875 z m -13.75,68.37891 c 4.027344,3.14843 8.679687,5.51172 13.746094,6.89062 v 29.875 C 58.765625,253.41797 46.957031,247.80859 37.425781,239.58203 Z m 27.402344,8.1289 c 7.722656,-0.67187 14.789062,-3.60547 20.574222,-8.1289 l 20.60156,20.96484 c -11.17578,9.65234 -25.48047,15.70313 -41.175782,16.48438 z m 92.160152,39.44141 c -5.53906,0 -10.04687,-4.50781 -10.04687,-10.04688 0,-5.53906 4.50781,-10.04687 10.04687,-10.04687 5.53907,0 10.04688,4.50781 10.04688,10.04687 0,5.53907 -4.50781,10.04688 -10.04688,10.04688 z m -6.82812,-156.625 c 5.53906,0 10.04687,4.50781 10.04687,10.04688 0,5.53906 -4.50781,10.04687 -10.04687,10.04687 -5.53906,0 -10.04688,-4.50781 -10.04688,-10.04687 0,-5.53907 4.50782,-10.04688 10.04688,-10.04688 z m 83.1875,47.33594 c -0.39453,0.16015 -0.81641,0.25781 -1.26563,0.25781 h -40.96093 c -1.88282,0 -3.41407,-1.53125 -3.41407,-3.41406 0,-1.88282 1.53125,-3.41407 3.41407,-3.41407 h 40.96093 c 1.87891,0 3.41016,1.53125 3.41016,3.41407 0,0.35937 -0.10156,0.6914 -0.20313,1.01562 -0.66015,0.70703 -1.30468,1.42188 -1.9414,2.14063 z m -1.01953,-47.53125 h -60.89063 c -3.60547,-7.45313 -10.96094,-12.683596 -19.6289,-13.292971 L 157.32812,50.203125 c 5.22266,-4.90625 10.97657,-9.300781 17.27735,-12.996094 l 15.74219,-9.230469 c 31.25781,16.5 54.52343,46.0625 62.58203,81.390628 z M 17.164062,132.94531 v -3.09765 c 0,-63.992191 52.058594,-116.050785 116.050778,-116.050785 14.64063,0 28.62891,2.703125 41.66407,7.425781 l -7.17969,4.210938 C 136.5,43.730469 116.22656,76.335938 113.17969,112.04688 c -9.61719,-3.96875 -20.132815,-6.1875 -31.164065,-6.1875 -26.304687,0 -49.695313,12.5 -64.714844,31.8164 -0.03906,-1.57812 -0.136719,-3.15625 -0.136719,-4.73047 z m -3.339843,58.34375 h 29.320312 c 0.546875,6.25781 2.585938,12.08203 5.742188,17.14844 L 28.03125,229.66406 c -8.320312,-10.72265 -13.488281,-23.95703 -14.207031,-38.375 z m 187.656251,150.1875 h -95.57031 v -70.0625 c 4.60547,0.77344 9.24609,1.375 13.92968,1.6211 2.53516,23.10156 22.16797,41.13281 45.9336,41.13281 h 35.70703 z m 38.55469,-40.96094 h -53.78125 c 0.97656,-5.61328 1.57421,-11.32421 1.57421,-17.0664 0,-1.98828 -0.12109,-3.94141 -0.23828,-5.90235 4.9336,-2.3125 8.90625,-6.26562 11.27735,-11.16406 h 57.22656 v 18.07031 c 0,8.85547 -7.20703,16.0625 -16.05859,16.0625 z m 22.88671,-81.92187 c -3.77343,0 -6.82812,3.05859 -6.82812,6.82812 v 27.30469 h -13.65234 v -29.64844 c 0,-20.05468 6.80078,-39.05078 19.28125,-54.39062 5.36328,10.44141 15.01171,30.17187 24.49218,49.90625 z m 0,0"
         inkscape:connector-curvature="0"
         style="fill:none;stroke:#fbff04;stroke-width:1.85231662;stroke-miterlimit:4;stroke-dasharray:none;stroke-opacity:1" />
      <path
         id="path2206"
         d="m 405.13672,262.59375 -13.65625,-20.48047 c -1.5,-2.24609 -4.16406,-3.39453 -6.84375,-2.9375 -2.66406,0.46094 -4.80078,2.44922 -5.45313,5.07031 l -7.03515,28.1211 -7.03125,-28.1211 c -0.65625,-2.62109 -2.79688,-4.60937 -5.45313,-5.07031 -2.69531,-0.44141 -5.34765,0.69141 -6.84765,2.9375 l -5.46875,8.19922 -9.58985,-33.59375 c -0.79687,-2.77734 -3.2539,-4.75391 -6.13672,-4.9375 -3.01171,-0.23047 -5.57421,1.47266 -6.70703,4.12109 l -15.51953,36.20313 -6.66015,-9.99219 c -2.53125,-3.80078 -8.82422,-3.80078 -11.35938,0 l -13.65234,20.48047 c -2.09375,3.13672 -1.2461,7.37891 1.89062,9.46875 3.14063,2.08984 7.375,1.23828 9.46875,-1.89453 l 7.97266,-11.96094 7.97265,11.96094 c 1.38672,2.08594 3.76172,3.27344 6.3086,3.01172 2.49219,-0.22656 4.66015,-1.80469 5.64844,-4.10547 l 12.91796,-30.14063 8.3711,29.32813 c 0.73437,2.55469 2.88672,4.45703 5.51562,4.86719 2.66016,0.41406 5.25782,-0.7461 6.73047,-2.95703 l 5.09375,-7.64063 9.91406,39.64453 c 0.75782,3.03516 3.48829,5.16797 6.6211,5.16797 3.13281,0 5.85937,-2.13281 6.61719,-5.16797 l 9.91406,-39.64453 5.09375,7.64062 c 2.08984,3.13282 6.32031,3.98438 9.46875,1.89454 3.14062,-2.09375 3.98437,-6.33594 1.89453,-9.47266 z m 0,0"
         inkscape:connector-curvature="0"
         style="fill:none;stroke:#fbff04;stroke-width:1.85231662;stroke-miterlimit:4;stroke-dasharray:none;stroke-opacity:1" />
    </g>
  </g>
</svg>
