<?xml version="1.0" encoding="UTF-8" standalone="no"?>
<!-- Created with Inkscape (http://www.inkscape.org/) -->

<svg
   xmlns:dc="http://purl.org/dc/elements/1.1/"
   xmlns:cc="http://creativecommons.org/ns#"
   xmlns:rdf="http://www.w3.org/1999/02/22-rdf-syntax-ns#"
   xmlns:svg="http://www.w3.org/2000/svg"
   xmlns="http://www.w3.org/2000/svg"
   xmlns:sodipodi="http://sodipodi.sourceforge.net/DTD/sodipodi-0.dtd"
   xmlns:inkscape="http://www.inkscape.org/namespaces/inkscape"
   width="1800"
   height="763"
   viewBox="0 0 476.25001 201.87708"
   version="1.1"
   id="svg8"
   inkscape:export-filename="/home/bonlohi/Documents/TESTgolb/boulga/static/images/postimages/terminal.png"
   inkscape:export-xdpi="96"
   inkscape:export-ydpi="96"
   inkscape:version="0.92.3 (2405546, 2018-03-11)"
   sodipodi:docname="terminal.svg">
  <defs
     id="defs2">
    <pattern
       y="0"
       x="0"
       height="6"
       width="6"
       patternUnits="userSpaceOnUse"
       id="WMFhbasepattern" />
  </defs>
  <sodipodi:namedview
     id="base"
     pagecolor="#ffffff"
     bordercolor="#e924be"
     borderopacity="1"
     inkscape:pageopacity="0.0"
     inkscape:pageshadow="2"
     inkscape:zoom="0.49497475"
     inkscape:cx="1125.584"
     inkscape:cy="614.19926"
     inkscape:document-units="mm"
     inkscape:current-layer="layer1"
     showgrid="false"
     borderlayer="true"
     showguides="true"
     inkscape:guide-bbox="true"
     units="px"
     inkscape:window-width="1920"
     inkscape:window-height="1027"
     inkscape:window-x="0"
     inkscape:window-y="0"
     inkscape:window-maximized="1">
    <sodipodi:guide
       position="238.125,1032.7294"
       orientation="1,0"
       id="guide1534"
       inkscape:locked="false"
       inkscape:label=""
       inkscape:color="rgb(0,0,255)" />
  </sodipodi:namedview>
  <metadata
     id="metadata5">
    <rdf:RDF>
      <cc:Work
         rdf:about="">
        <dc:format>image/svg+xml</dc:format>
        <dc:type
           rdf:resource="http://purl.org/dc/dcmitype/StillImage" />
        <dc:title></dc:title>
      </cc:Work>
    </rdf:RDF>
  </metadata>
  <g
     inkscape:label="Calque 1"
     inkscape:groupmode="layer"
     id="layer1"
     transform="translate(0,-95.122924)">
    <rect
       style="opacity:1;fill:#002352;fill-opacity:1;stroke:#ffffff;stroke-width:0;stroke-miterlimit:4;stroke-dasharray:none;stroke-dashoffset:0;stroke-opacity:1"
       id="rect1532"
       width="606.1673"
       height="273.68399"
       x="-52.384834"
       y="40.421234" />
    <g
       id="g998"
       transform="matrix(0.26458333,0,0,0.26458333,170.00798,126.10064)"
       style="stroke:#1eeeff;stroke-opacity:1;fill:none;stroke-width:4.0251969;stroke-miterlimit:4;stroke-dasharray:none">
      <g
         id="g896"
         style="stroke:#1eeeff;stroke-opacity:1;fill:none;stroke-width:4.0251969;stroke-miterlimit:4;stroke-dasharray:none">
	<g
   id="g894"
   style="stroke:#1eeeff;stroke-opacity:1;fill:none;stroke-width:4.0251969;stroke-miterlimit:4;stroke-dasharray:none">
		<path
   id="path892"
   d="M 495.304,61.217 H 16.696 C 7.475,61.217 0,68.693 0,77.913 v 356.174 c 0,9.22 7.475,16.696 16.696,16.696 h 478.609 c 9.22,0 16.696,-7.475 16.696,-16.696 V 77.913 C 512,68.693 504.525,61.217 495.304,61.217 Z M 478.609,417.391 H 33.391 V 194.424 h 445.217 v 222.967 z m 0,-256.358 H 33.391 V 94.609 h 445.217 v 66.424 z"
   inkscape:connector-curvature="0"
   style="stroke:#1eeeff;stroke-opacity:1;fill:none;stroke-width:4.0251969;stroke-miterlimit:4;stroke-dasharray:none" />

	</g>

</g>
      <g
         id="g902"
         style="stroke:#1eeeff;stroke-opacity:1;fill:none;stroke-width:4.0251969;stroke-miterlimit:4;stroke-dasharray:none">
	<g
   id="g900"
   style="stroke:#1eeeff;stroke-opacity:1;fill:none;stroke-width:4.0251969;stroke-miterlimit:4;stroke-dasharray:none">
		<path
   id="path898"
   d="m 443.568,103.247 c -12.275,0 -22.261,9.986 -22.261,22.261 0,12.275 9.985,22.261 22.261,22.261 12.275,0 22.261,-9.986 22.261,-22.261 0,-12.275 -9.986,-22.261 -22.261,-22.261 z"
   inkscape:connector-curvature="0"
   style="stroke:#1eeeff;stroke-opacity:1;fill:none;stroke-width:4.0251969;stroke-miterlimit:4;stroke-dasharray:none" />

	</g>

</g>
      <g
         id="g908"
         style="stroke:#1eeeff;stroke-opacity:1;fill:none;stroke-width:4.0251969;stroke-miterlimit:4;stroke-dasharray:none">
	<g
   id="g906"
   style="stroke:#1eeeff;stroke-opacity:1;fill:none;stroke-width:4.0251969;stroke-miterlimit:4;stroke-dasharray:none">
		<path
   id="path904"
   d="m 382.926,103.247 c -12.275,0 -22.261,9.986 -22.261,22.261 0,12.275 9.986,22.261 22.261,22.261 12.275,0 22.261,-9.986 22.261,-22.261 0,-12.275 -9.986,-22.261 -22.261,-22.261 z"
   inkscape:connector-curvature="0"
   style="stroke:#1eeeff;stroke-opacity:1;fill:none;stroke-width:4.0251969;stroke-miterlimit:4;stroke-dasharray:none" />

	</g>

</g>
      <g
         id="g914"
         style="stroke:#1eeeff;stroke-opacity:1;fill:none;stroke-width:4.0251969;stroke-miterlimit:4;stroke-dasharray:none">
	<g
   id="g912"
   style="stroke:#1eeeff;stroke-opacity:1;fill:none;stroke-width:4.0251969;stroke-miterlimit:4;stroke-dasharray:none">
		<path
   id="path910"
   d="m 322.285,103.247 c -12.275,0 -22.261,9.986 -22.261,22.261 0,12.275 9.985,22.261 22.261,22.261 12.275,0 22.261,-9.986 22.261,-22.261 0,-12.275 -9.986,-22.261 -22.261,-22.261 z"
   inkscape:connector-curvature="0"
   style="stroke:#1eeeff;stroke-opacity:1;fill:none;stroke-width:4.0251969;stroke-miterlimit:4;stroke-dasharray:none" />

	</g>

</g>
      <g
         id="g920"
         style="stroke:#1eeeff;stroke-opacity:1;fill:none;stroke-width:4.0251969;stroke-miterlimit:4;stroke-dasharray:none">
	<g
   id="g918"
   style="stroke:#1eeeff;stroke-opacity:1;fill:none;stroke-width:4.0251969;stroke-miterlimit:4;stroke-dasharray:none">
		<path
   id="path916"
   d="m 235.45,293.193 -54.653,-46.504 c -7.022,-5.976 -17.559,-5.128 -23.535,1.896 -5.976,7.022 -5.127,17.559 1.896,23.535 l 39.709,33.789 -39.709,33.789 c -7.023,5.976 -7.871,16.512 -1.896,23.535 5.975,7.022 16.512,7.871 23.535,1.896 l 54.653,-46.504 c 7.83,-6.663 7.83,-18.771 0,-25.432 z"
   inkscape:connector-curvature="0"
   style="stroke:#1eeeff;stroke-opacity:1;fill:none;stroke-width:4.0251969;stroke-miterlimit:4;stroke-dasharray:none" />

	</g>

</g>
      <g
         id="g926"
         style="stroke:#1eeeff;stroke-opacity:1;fill:none;stroke-width:4.0251969;stroke-miterlimit:4;stroke-dasharray:none">
	<g
   id="g924"
   style="stroke:#1eeeff;stroke-opacity:1;fill:none;stroke-width:4.0251969;stroke-miterlimit:4;stroke-dasharray:none">
		<path
   id="path922"
   d="m 342.022,335.716 h -65.954 c -9.22,0 -16.696,7.475 -16.696,16.696 0,9.221 7.475,16.696 16.696,16.696 h 65.954 c 9.22,0 16.696,-7.475 16.696,-16.696 0,-9.221 -7.476,-16.696 -16.696,-16.696 z"
   inkscape:connector-curvature="0"
   style="stroke:#1eeeff;stroke-opacity:1;fill:none;stroke-width:4.0251969;stroke-miterlimit:4;stroke-dasharray:none" />

	</g>

</g>
      <g
         id="g928"
         style="stroke:#1eeeff;stroke-opacity:1;fill:none;stroke-width:4.0251969;stroke-miterlimit:4;stroke-dasharray:none">
</g>
      <g
         id="g930"
         style="stroke:#1eeeff;stroke-opacity:1;fill:none;stroke-width:4.0251969;stroke-miterlimit:4;stroke-dasharray:none">
</g>
      <g
         id="g932"
         style="stroke:#1eeeff;stroke-opacity:1;fill:none;stroke-width:4.0251969;stroke-miterlimit:4;stroke-dasharray:none">
</g>
      <g
         id="g934"
         style="stroke:#1eeeff;stroke-opacity:1;fill:none;stroke-width:4.0251969;stroke-miterlimit:4;stroke-dasharray:none">
</g>
      <g
         id="g936"
         style="stroke:#1eeeff;stroke-opacity:1;fill:none;stroke-width:4.0251969;stroke-miterlimit:4;stroke-dasharray:none">
</g>
      <g
         id="g938"
         style="stroke:#1eeeff;stroke-opacity:1;fill:none;stroke-width:4.0251969;stroke-miterlimit:4;stroke-dasharray:none">
</g>
      <g
         id="g940"
         style="stroke:#1eeeff;stroke-opacity:1;fill:none;stroke-width:4.0251969;stroke-miterlimit:4;stroke-dasharray:none">
</g>
      <g
         id="g942"
         style="stroke:#1eeeff;stroke-opacity:1;fill:none;stroke-width:4.0251969;stroke-miterlimit:4;stroke-dasharray:none">
</g>
      <g
         id="g944"
         style="stroke:#1eeeff;stroke-opacity:1;fill:none;stroke-width:4.0251969;stroke-miterlimit:4;stroke-dasharray:none">
</g>
      <g
         id="g946"
         style="stroke:#1eeeff;stroke-opacity:1;fill:none;stroke-width:4.0251969;stroke-miterlimit:4;stroke-dasharray:none">
</g>
      <g
         id="g948"
         style="stroke:#1eeeff;stroke-opacity:1;fill:none;stroke-width:4.0251969;stroke-miterlimit:4;stroke-dasharray:none">
</g>
      <g
         id="g950"
         style="stroke:#1eeeff;stroke-opacity:1;fill:none;stroke-width:4.0251969;stroke-miterlimit:4;stroke-dasharray:none">
</g>
      <g
         id="g952"
         style="stroke:#1eeeff;stroke-opacity:1;fill:none;stroke-width:4.0251969;stroke-miterlimit:4;stroke-dasharray:none">
</g>
      <g
         id="g954"
         style="stroke:#1eeeff;stroke-opacity:1;fill:none;stroke-width:4.0251969;stroke-miterlimit:4;stroke-dasharray:none">
</g>
      <g
         id="g956"
         style="stroke:#1eeeff;stroke-opacity:1;fill:none;stroke-width:4.0251969;stroke-miterlimit:4;stroke-dasharray:none">
</g>
    </g>
  </g>
</svg>
